Informe-ElPrecioDeLaDiscapacidad
…
Para concluir, antes de reflexionar sobre los resultados, vamos a crear una tabla conjunta con los datos demogrficos y la cantidad de pueblos que posee cada comunidad, esta operacin se realiza con un join.

DemPueblos <- full_join(x = Demografia, y = Pueblos, by = c("Comunidad"))

DemPueblos

## # A tibble: 21 x 3
##    Comunidad               PM10  `Nmero de municipios`
##    <chr>                   <chr>                  <dbl>
##  1 Andaluca               24.92                    785
##  2 Aragn                  11.84                    731
##  3 Asturias, Principado de 20.34                     78
##  4 Balears, Illes          21.33                     67
##  5 Canarias                23.75                     88
##  6 Cantabria               21.85                    102
##  7 Castilla y Len         15.22                   2248
##  8 Castilla - La Mancha    24.23                     NA
##  9 Catalua                24.65                    947
## 10 Comunitat Valenciana    20.3                     542
## # ... with 11 more rows
…
